<svg width="76" height="76" viewBox="0 0 76 76" xmlns="http://www.w3.org/2000/svg" xmlns:xlink="http://www.w3.org/1999/xlink">
    <defs>
        <path id="a" d="M0 0h61.75v49.067H0z"/>
    </defs>
    <g transform="translate(7.125 16.625)" fill="none" fill-rule="evenodd">
        <mask id="b" fill="#fff">
            <use xlink:href="#a"/>
        </mask>
        <path d="M57.82 30.71H3.907V3.606h53.915V30.71zM38.53 43.636c-.964-.91-.964-2.113-.964-2.113l-.339-4.807h21.918c1.304 0 2.605-.624 2.605-1.776V2.067C61.75.867 60.45 0 59.145 0H2.605C1.304 0 0 .866 0 2.067V34.94c0 1.152 1.304 1.776 2.605 1.776h21.892l-.339 4.807s-.311 1.488-1.299 2.113h-4.245c-1.639 0-2.94 1.203-2.94 2.741a2.69 2.69 0 0 0 2.69 2.69h25.023a2.69 2.69 0 0 0 2.69-2.69c0-1.538-1.325-2.741-2.966-2.741h-4.58z" fill="#FFFBEF" mask="url(#b)"/>
    </g>
</svg>
