<svg width="76" height="76" viewBox="0 0 76 76" xmlns="http://www.w3.org/2000/svg">
    <path d="M30.155 25.7h2.337l-2.879 11.263h-2.336L30.155 25.7zm-3.67 0h2.358l-2.63 11.263h-2.627l2.9-11.263zm-3.672 0h2.358l-2.63 11.263h-2.606L22.813 25.7zm-3.672 0h2.378l-2.627 11.263h-2.627L19.14 25.7zm14.666 0h2.357l-2.879 11.263h-2.357L33.807 25.7zM4.75 39.551h33.5v-16.73H4.75v16.73zm48.435-10.18h5.506v-1.586h-5.506v1.585zm-12.558 4.967H71.25V22.82H40.627v11.517zm-27.762 10.97h-2.63l2.88 11.223h2.356l-2.606-11.222zm3.67 0h-2.628l2.877 11.223h2.357l-2.606-11.222zm3.672 0h-2.63l2.88 11.223h2.356l-2.606-11.222zm3.651 0h-2.63l2.88 11.223h2.377l-2.627-11.222zm-14.665 0H6.835l2.63 11.223h2.355L9.193 45.309zM4.75 58.66h33.5V42.181H4.75v16.478zm48.435-17.02h5.506v-1.544h-5.506v1.544zM40.627 46.6H71.25V35.088H40.627v11.513zm12.558 7.344h5.506v-1.587h-5.506v1.587zm-12.558 4.714H71.25V47.396H40.627v11.263zm12.83-29.58h4.964v-1.001h-4.964v1.001zm0 12.308h4.964v-1.042h-4.964v1.042zm0 12.306h4.964v-1.335h-4.964v1.335z" fill="#FFFBEF" fill-rule="evenodd"/>
</svg>
