<svg width="230" height="48" viewBox="0 0 230 48" xmlns="http://www.w3.org/2000/svg" xmlns:xlink="http://www.w3.org/1999/xlink">
    <defs>
        <path id="a" d="M0 35.905h229.448V0H0z"/>
    </defs>
    <g transform="translate(0 6.5)" fill="none" fill-rule="evenodd">
        <path d="M150.382 31.22c.526 0 .79-.27.79-.795 0-.527-.264-.797-.79-.797h-.898v1.593h.898zm-.898.926v1.896h-1.106v-5.338h2.152c1.114 0 1.755.627 1.755 1.72 0 1.1-.64 1.722-1.755 1.722h-1.046zM154.122 32.834c.162.243.418.371.769.371.351 0 .608-.128.77-.371.189-.277.263-.675.263-1.465 0-.782-.074-1.181-.263-1.457-.162-.243-.419-.372-.77-.372-.351 0-.607.129-.769.372-.189.276-.27.675-.27 1.457 0 .79.081 1.188.27 1.465m2.409.58c-.344.459-.863.722-1.64.722-.783 0-1.296-.263-1.64-.722-.398-.526-.512-1.248-.512-2.045 0-.789.114-1.511.512-2.038.344-.459.857-.722 1.64-.722.777 0 1.296.263 1.64.722.398.527.506 1.249.506 2.038 0 .797-.108 1.519-.506 2.045M158.989 32.834c.162.243.418.371.769.371.35 0 .608-.128.77-.371.189-.277.263-.675.263-1.465 0-.782-.074-1.181-.263-1.457-.162-.243-.42-.372-.77-.372-.351 0-.607.129-.77.372-.188.276-.27.675-.27 1.457 0 .79.082 1.188.27 1.465m2.41.58c-.344.459-.864.722-1.64.722-.783 0-1.296-.263-1.64-.722-.398-.526-.513-1.248-.513-2.045 0-.789.115-1.511.513-2.038.344-.459.857-.722 1.64-.722.776 0 1.296.263 1.64.722.398.527.506 1.249.506 2.038 0 .797-.108 1.519-.506 2.045M162.586 28.704h1.107v4.414h2.24v.924h-3.347zM172.488 28.704h3.941v.925h-1.417v4.413h-1.114v-4.413h-1.41zM181.634 31.768H180v2.274h-1.107v-5.338H180v2.14h1.633v-2.14h1.114v5.338h-1.114zM184.806 32.834c.162.243.418.371.77.371.35 0 .608-.128.77-.371.189-.277.262-.675.262-1.465 0-.782-.073-1.181-.263-1.457-.161-.243-.418-.372-.77-.372-.35 0-.606.129-.768.372-.19.276-.27.675-.27 1.457 0 .79.08 1.188.27 1.465m2.409.58c-.345.459-.865.722-1.64.722-.782 0-1.296-.263-1.64-.722-.399-.526-.513-1.248-.513-2.045 0-.789.114-1.511.512-2.038.345-.459.858-.722 1.64-.722.776 0 1.297.263 1.64.722.4.527.507 1.249.507 2.038 0 .797-.108 1.519-.507 2.045M190.672 34.042l-1.188-3.111v3.11h-1.08v-5.337h1.127l1.6 4.184 1.599-4.184h1.127v5.338h-1.08V30.93l-1.187 3.11zM194.655 28.704h3.314v.925h-2.207v1.215h1.93v.924h-1.93v1.35h2.24v.924h-3.347zM171.003 28.704h-1.228l-1.708 5.338h1.01l1.312-4.635 1.31 4.635h1.01z" fill="#A9B6C3"/>
        <path d="M169.358 34.042h.607v-.807a.423.423 0 0 1 .846 0v.807h.608l-1.03-3.642-1.03 3.642zM200.562 29.339c.348-.464.866-.73 1.657-.73 1.282 0 2.046.75 2.114 1.937h-1.118c-.041-.621-.382-.995-.996-.995-.354 0-.613.129-.777.374-.191.28-.273.682-.273 1.473 0 .798.082 1.2.273 1.48.164.246.423.375.777.375.614 0 .955-.375.996-.995h1.118c-.068 1.186-.832 1.936-2.114 1.936-.791 0-1.31-.266-1.657-.73-.402-.531-.518-1.261-.518-2.066 0-.798.116-1.527.518-2.06M206.286 32.878c.164.245.423.375.777.375.355 0 .614-.13.778-.375.19-.28.266-.682.266-1.48 0-.791-.075-1.193-.266-1.473-.164-.245-.423-.375-.778-.375-.354 0-.613.13-.777.375-.191.28-.273.682-.273 1.473 0 .798.082 1.2.273 1.48m2.435.586c-.35.464-.873.73-1.658.73-.791 0-1.31-.266-1.657-.73-.402-.531-.518-1.261-.518-2.066 0-.798.116-1.527.518-2.059.348-.464.866-.73 1.657-.73.785 0 1.309.266 1.658.73.402.532.51 1.261.51 2.059 0 .805-.108 1.535-.51 2.066" fill="#A9B6C3"/>
        <mask id="b" fill="#fff">
            <use xlink:href="#a"/>
        </mask>
        <path fill="#A9B6C3" mask="url(#b)" d="M210.032 34.098h1.118v-1.112h-1.118zM213.292 34.099c0 .552-.362.954-1.119.975v-.484c.368-.014.566-.177.566-.491h-.566v-1.112h1.12v1.112zM215.36 28.704h1.119v4.46h2.263v.934h-3.382zM218.928 28.704h3.983v.935h-1.433v4.46h-1.125v-4.46h-1.425zM225.333 29.625h-.818v3.56h.818c.757 0 1.07-.396 1.07-1.787 0-1.384-.313-1.773-1.07-1.773zm-1.943 4.473v-5.394h2.011c1.773 0 2.121 1.255 2.121 2.694 0 1.452-.348 2.7-2.12 2.7h-2.012zM228.33 34.098h1.118v-1.112h-1.118zM157.494 7.201h5.001V4.715h-5.001v2.486zm-7.63 3.001v-3h3.83V4.714h-3.687v-3h19.976v3h-3.687v2.486h3.859v3.001h-20.291zm21.691 1.143v3.001h-9.688v1.171h8.288v6.545h-16.547v1.03h16.547v2.8H151.55c-.553 0-.976-.139-1.272-.415-.295-.276-.442-.68-.442-1.215v-4.915h16.546v-1.029h-16.546v-2.8h8.258v-1.172h-9.716v-3h23.177zM196.676 16.232V9.26h-1.915v5.573h-3.687V1.343h3.687v4.715h1.915V1.343h3.772v14.89h-3.772zm-13.918-5c1.028 0 1.863-.315 2.5-.944.638-.629.958-1.41.958-2.344 0-.475-.086-.919-.258-1.329a3.296 3.296 0 0 0-.714-1.07 3.057 3.057 0 0 0-1.1-.7 3.9 3.9 0 0 0-1.386-.244c-.99 0-1.796.31-2.415.93-.62.618-.928 1.423-.928 2.413 0 .953.304 1.74.914 2.358.609.62 1.419.93 2.429.93zm0-9.889c1.047 0 2.01.167 2.886.5.876.334 1.63.796 2.258 1.386a6.323 6.323 0 0 1 1.472 2.1c.353.81.529 1.682.529 2.615 0 .896-.176 1.74-.53 2.53a6.556 6.556 0 0 1-1.471 2.086 6.817 6.817 0 0 1-2.258 1.414c-.876.343-1.84.515-2.886.515-1.047 0-2.005-.172-2.872-.515a6.524 6.524 0 0 1-2.215-1.414 6.559 6.559 0 0 1-1.43-2.087 6.298 6.298 0 0 1-.514-2.529c0-.933.167-1.8.5-2.6.334-.8.81-1.496 1.43-2.086a6.856 6.856 0 0 1 2.215-1.4c.857-.344 1.818-.515 2.886-.515zM217.108 9.402c.42 0 .82-.043 1.2-.128a3.338 3.338 0 0 0 1.015-.4c.295-.181.533-.415.714-.7a1.83 1.83 0 0 0 .272-1c0-.802-.32-1.397-.957-1.788-.639-.39-1.386-.585-2.244-.585a4.73 4.73 0 0 0-1.186.143c-.37.096-.7.244-.986.442a2.331 2.331 0 0 0-.686.744 2.042 2.042 0 0 0-.257 1.043c0 .362.086.681.257.957.172.276.4.51.686.7.286.191.615.335.986.43.372.095.767.143 1.186.143zm-6.344 13.46h12.774v-2.571h-12.774v2.572zm16.546-5.514v8.544h-18.518c-.553 0-.99-.133-1.314-.4-.325-.268-.487-.678-.487-1.23v-6.915h20.32zM207.306 4.685V1.601h7.916V0h3.772v1.6h7.916v3.085h-3.629c.21.362.371.75.485 1.159.115.41.172.853.172 1.329 0 .666-.124 1.28-.372 1.843a4.72 4.72 0 0 1-1.028 1.486 6.155 6.155 0 0 1-1.572 1.1 7.527 7.527 0 0 1-1.972.658v.885h9.717v3.03h-23.177v-3.03h9.688v-.886a7.107 7.107 0 0 1-1.944-.658 6.06 6.06 0 0 1-1.528-1.1 4.85 4.85 0 0 1-1.015-1.486 4.513 4.513 0 0 1-.37-1.843c0-.933.218-1.761.656-2.487h-3.715zM190.628 18.044l4.005 4v3.848h7.145l-11.147-11.147-11.148 11.147h7.146v-3.848z"/>
        <path d="m190.628 18.77-3.486 3.486v3.636h2.01V23.62a1.48 1.48 0 0 1 1.476-1.478 1.48 1.48 0 0 1 1.478 1.478v2.273h2.014v-3.636l-3.492-3.486zM114.23 31.062c-.08-.572-.235-.998-.457-1.285a1.04 1.04 0 0 0-.861-.431c-.331 0-.613.157-.843.46-.228.31-.372.725-.422 1.256h2.584zm.484.544h-3.077c.026.55.158.995.403 1.334.24.34.54.509.904.509a.951.951 0 0 0 .689-.295c.205-.196.368-.473.478-.822h.496c-.156.559-.382.993-.66 1.288-.286.299-.616.45-.994.45-.495 0-.913-.262-1.258-.786-.341-.525-.516-1.154-.516-1.888 0-.771.168-1.405.507-1.906.337-.503.767-.76 1.29-.76.512 0 .93.269 1.255.786.323.523.483 1.21.483 2.043v.047zm-4.824-1.182c-.136-.367-.298-.64-.494-.815a1 1 0 0 0-.687-.263c-.354 0-.651.197-.895.594-.245.395-.37.882-.37 1.463 0 .583.125 1.069.37 1.46.247.389.549.586.91.586a.976.976 0 0 0 .7-.29c.204-.192.357-.465.466-.814h.483c-.131.55-.341.975-.623 1.275a1.342 1.342 0 0 1-1.004.45c-.494 0-.91-.262-1.25-.78-.341-.517-.51-1.146-.51-1.874 0-.75.17-1.382.514-1.901.345-.521.763-.785 1.258-.785.37 0 .698.157.978.447.289.297.496.715.637 1.247h-.483zm-6.638-1.55h.427v.574c.135-.233.292-.4.463-.51.179-.11.384-.17.608-.17.25 0 .474.073.67.21.196.14.35.337.464.595.079.18.137.39.169.633.035.245.053.607.053 1.083v2.637h-.434v-2.827c0-.6-.074-1.035-.231-1.3-.153-.274-.401-.406-.741-.406a.838.838 0 0 0-.523.176 1.213 1.213 0 0 0-.351.506 1.78 1.78 0 0 0-.115.474 8.715 8.715 0 0 0-.032.92v2.457h-.427v-5.051zm-1.476 4.254a1.708 1.708 0 0 1-.555.685c-.23.163-.486.245-.751.245-.5 0-.92-.25-1.252-.761-.333-.506-.495-1.131-.495-1.874 0-.756.168-1.386.507-1.898.34-.505.765-.764 1.277-.764.264 0 .5.08.722.238.222.157.4.385.547.685v-.81h.423v5.052h-.423v-.798zm0-1.76c0-.537-.132-1.003-.388-1.405-.258-.397-.557-.6-.894-.6-.367 0-.678.203-.934.6-.26.402-.388.894-.388 1.485 0 .566.128 1.039.383 1.428.258.39.564.58.928.58.346 0 .65-.201.905-.614.256-.407.388-.897.388-1.473zm-4.387 2.558h.439v-5.051h-.44v5.05zm-.001-5.645h.439V27.24h-.44v1.04zm-1.507 5.644h.437v-6.686h-.437v6.686zm-1.511 0h.436v-6.686h-.436v6.686zm-1.804-2.7-.858-3.357-.843 3.358h1.7zm-2.398 2.7h-.464l1.75-6.686h.538l1.744 6.687h-.474l-.54-2.1h-2.01l-.544 2.1zm-4.44-1.59h.452v.02c0 .312.059.578.178.782.124.21.277.312.456.312.174 0 .313-.08.426-.236.114-.161.172-.363.172-.604 0-.243-.045-.433-.133-.585-.09-.148-.253-.286-.491-.418-.378-.195-.624-.405-.74-.602-.116-.212-.174-.491-.174-.84 0-.398.097-.733.29-1.008.19-.27.428-.41.702-.41.293 0 .524.122.695.364.173.246.265.59.277 1.028h-.471c-.01-.242-.06-.425-.152-.56a.437.437 0 0 0-.378-.196c-.141 0-.26.07-.355.215a.924.924 0 0 0-.144.53c0 .143.02.274.059.382.04.1.103.192.196.274.085.074.204.15.36.22.159.07.266.126.32.158.214.133.37.313.468.537.102.225.152.509.152.853 0 .438-.102.797-.31 1.083-.2.285-.464.424-.774.424-.32 0-.58-.153-.773-.461-.196-.316-.296-.733-.307-1.261zm-1.265-1.911c-.13-.367-.295-.64-.492-.815a.993.993 0 0 0-.688-.263c-.352 0-.65.197-.894.594-.244.395-.37.882-.37 1.463 0 .583.126 1.069.37 1.46.248.389.55.586.914.586a.993.993 0 0 0 .703-.29c.2-.192.353-.465.457-.814h.49c-.136.55-.344.975-.628 1.275-.281.299-.614.45-1 .45-.494 0-.912-.262-1.255-.78-.338-.517-.507-1.146-.507-1.874 0-.75.172-1.382.516-1.901.344-.521.763-.785 1.255-.785.374 0 .698.157.982.447.283.297.492.715.637 1.247h-.49zm-4.232 3.502h.438v-5.051h-.438v5.05zm0-5.645h.439V27.24h-.438v1.04zm-1.8 5.645v-4.401h-.648v-.65h.648v-1.636h.436v1.636h.649v.65h-.65v4.4h-.435zm-3.35-1.59h.454v.02c0 .31.06.577.183.78.12.21.273.313.454.313.169 0 .31-.08.426-.236.113-.161.168-.363.168-.604 0-.243-.042-.433-.132-.585-.09-.148-.253-.286-.487-.418-.38-.195-.626-.405-.74-.602-.117-.212-.175-.491-.175-.84 0-.398.094-.733.289-1.008.192-.27.427-.41.7-.41.292 0 .524.122.697.364.172.246.265.59.276 1.028h-.47c-.01-.242-.06-.425-.148-.56a.451.451 0 0 0-.38-.196c-.146 0-.264.07-.358.215a.916.916 0 0 0-.142.53c0 .143.017.274.06.382a.718.718 0 0 0 .192.274c.085.074.204.15.363.22s.265.126.32.158c.21.133.366.313.47.537.097.225.147.509.147.853 0 .438-.1.797-.307 1.083-.205.285-.464.424-.778.424-.321 0-.577-.153-.773-.461-.194-.316-.296-.733-.308-1.261zm-1.284 1.59h.437v-5.051h-.437v5.05zm0-5.645h.438V27.24h-.437v1.04zm-4.057 3.078c0 .586.128 1.085.379 1.483.254.397.56.596.919.596.334 0 .635-.2.895-.596.256-.402.387-.873.387-1.41 0-.58-.127-1.067-.382-1.472-.255-.408-.555-.614-.9-.614-.36 0-.66.197-.92.582-.25.388-.378.864-.378 1.43zm.303 2.98c.065.295.188.528.36.69a.896.896 0 0 0 .635.244c.389 0 .699-.191.932-.571.236-.385.355-.897.355-1.538v-.134c-.164.335-.355.585-.564.759a1.113 1.113 0 0 1-.698.252c-.515 0-.94-.252-1.281-.761-.34-.505-.51-1.136-.51-1.896 0-.741.17-1.368.506-1.875.336-.507.752-.755 1.242-.755.289 0 .54.075.748.227.209.152.396.398.557.719v-.825h.427v4.212c0 .886-.148 1.576-.448 2.069-.3.502-.71.75-1.237.75-.388 0-.717-.145-.992-.427-.282-.286-.458-.666-.54-1.14h.508zm-4.976-2.933c0-.741.17-1.376.513-1.903.345-.527.749-.791 1.22-.791.493 0 .915.264 1.264.778.349.517.522 1.135.522 1.85 0 .75-.17 1.399-.51 1.93-.344.535-.754.8-1.244.8-.495 0-.91-.262-1.252-.786-.342-.52-.513-1.145-.513-1.878zm.459-.013c0 .587.124 1.073.375 1.467.25.392.558.589.93.589.369 0 .675-.197.922-.59.25-.393.375-.884.375-1.475 0-.595-.124-1.086-.377-1.468-.254-.386-.572-.581-.957-.581-.347 0-.647.199-.895.597-.25.393-.373.88-.373 1.46zm-.955 2.533h-2.034v-6.687h.45v6.04h1.584v.647zm-5.04-.001h.438v-6.686h-.437v6.686zm-1.482-.797a1.755 1.755 0 0 1-.553.685 1.3 1.3 0 0 1-.757.245c-.5 0-.918-.25-1.25-.761-.33-.506-.497-1.131-.497-1.874 0-.756.17-1.386.513-1.898.338-.505.764-.764 1.274-.764.265 0 .503.08.722.238.222.157.403.385.548.685v-.81h.426v5.052h-.426v-.798zm0-1.76c0-.537-.13-1.003-.39-1.405-.258-.397-.553-.6-.892-.6-.367 0-.676.203-.936.6-.256.402-.388.894-.388 1.485 0 .566.132 1.039.386 1.428.259.39.565.58.926.58.346 0 .649-.201.907-.614.258-.407.387-.897.387-1.473zm-4.682 2.558v-4.401h-.646v-.65h.646v-1.636h.442v1.636h.646v.65h-.646v4.4h-.442zm-4.69-2.52c0-.741.173-1.376.515-1.903.342-.527.75-.791 1.222-.791.49 0 .91.264 1.26.778.35.517.526 1.135.526 1.85 0 .75-.173 1.399-.512 1.93-.341.535-.756.8-1.241.8-.497 0-.916-.262-1.255-.786-.342-.52-.514-1.145-.514-1.878zm.459-.013c0 .587.127 1.073.375 1.467.25.392.562.589.936.589.362 0 .67-.197.92-.59.247-.393.37-.884.37-1.475 0-.595-.126-1.086-.376-1.468-.252-.386-.571-.581-.957-.581-.346 0-.644.199-.895.597-.246.393-.373.88-.373 1.46zm-1.668 2.533h-.441v-6.032h-.904v-.655h2.25v.655h-.905v6.032zM106.433 19.79h8.024v4.576h-8.52c-1.12 0-2.077-.403-2.876-1.203-.803-.8-1.208-1.758-1.208-2.875V1.715h4.58V19.79zM92.614 19.79h8.027v4.576H92.12c-1.116 0-2.076-.403-2.874-1.203-.801-.8-1.206-1.758-1.206-2.875V1.715h4.574V19.79zM72.522 12.711h9.212v-7.09h-9.212v7.09zm9.085-10.996c1.142 0 2.113.395 2.901 1.185.785.78 1.178 1.75 1.178 2.895v18.57h-3.952v-7.732h-9.212v7.732h-3.918V5.795c0-1.145.392-2.115 1.179-2.895.783-.79 1.755-1.185 2.901-1.185h8.923zM66.533 14.673H56.7v1.258h5.192c1.562 0 2.682.345 3.363 1.037.84.85 1.25 1.766 1.242 2.745-.001.293.049.826-.064 1.26-.282 1.09-.68 1.788-.987 2.152-.701.828-1.807 1.24-3.316 1.24h-9.382v-3.918h9.44V19.2h-5.397c-1.037 0-2.062-.506-3.078-1.516-.646-.646-.965-1.503-.965-2.855 0-1.154.49-2.141 1.464-2.947a4.787 4.787 0 0 1 3.144-1.132h9.176v3.922zM46.475 24.365h3.921V10.75h-3.921zM34.271 20.446h5.911v-5.774h-5.911v5.774zm-3.954 7.217h3.954v2.598h5.911v-5.896h-5.268a4.735 4.735 0 0 1-3.13-1.134c-.974-.804-1.467-1.792-1.467-2.944V14.83c0-1.12.397-2.086 1.201-2.88.795-.8 1.754-1.198 2.88-1.198h9.738v19.354c0 1.118-.404 2.084-1.2 2.88-.797.795-1.754 1.2-2.881 1.2h-5.657c-1.126 0-2.085-.405-2.88-1.2-.798-.796-1.201-1.752-1.201-2.88v-2.442zM17.766 20.446h5.915v-5.774h-5.915v5.774zm5.786 3.92h-5.659c-1.125 0-2.084-.399-2.878-1.197-.801-.797-1.2-1.76-1.2-2.882V14.83c0-1.153.488-2.14 1.465-2.947a4.8 4.8 0 0 1 3.141-1.13h4.605a4.8 4.8 0 0 1 3.142 1.13c.972.807 1.465 1.794 1.465 2.947v5.458c0 1.122-.401 2.085-1.2 2.882-.793.798-1.754 1.196-2.881 1.196zM4.574 19.79h8.024v4.576H4.08c-1.116 0-2.078-.403-2.877-1.203C.405 22.363 0 21.405 0 20.288V1.715h4.574V19.79zM51.292 4.632a3.016 3.016 0 1 1-3.013-3.013 3.015 3.015 0 0 1 3.013 3.013" fill="#A9B6C3" mask="url(#b)"/>
        <path stroke="#A9B6C3" stroke-width=".3" mask="url(#b)" d="M131.231 34.185V1.618"/>
    </g>
</svg>
