<?xml version="1.0" encoding="UTF-8"?>
<svg width="24px" height="24px" viewBox="0 0 24 24" version="1.1" xmlns="http://www.w3.org/2000/svg" xmlns:xlink="http://www.w3.org/1999/xlink">
    <title>Artboard Copy</title>
    <defs>
        <polygon id="path-1" points="9 5.14285714 5.14285714 5.14285714 5.14285714 9 3.85714286 9 3.85714286 5.14285714 0 5.14285714 0 3.85714286 3.85714286 3.85714286 3.85714286 0 5.14285714 0 5.14285714 3.85714286 9 3.85714286"></polygon>
    </defs>
    <g id="Artboard-Copy" stroke="none" stroke-width="1" fill="none" fill-rule="evenodd">
        <circle id="Oval" stroke="#979797" stroke-width="0.8" fill="#FFFFFF" cx="12" cy="12" r="11.6"></circle>
        <g id="plus" transform="translate(7.500000, 7.500000)">
            <mask id="mask-2" fill="white">
                <use xlink:href="#path-1"></use>
            </mask>
            <g id="a"></g>
            <g id="Group" mask="url(#mask-2)" fill="#767676" fill-rule="nonzero">
                <g transform="translate(-3.000000, -3.000000)" id="Path">
                    <polygon points="0 0 15 0 15 15 0 15"></polygon>
                </g>
            </g>
        </g>
    </g>
</svg>